////////////// OPENING INVENTORY////////////////
use App\GeneralLedger;
use Carbon\Carbon;
use App\Products;
use App\Brands;
use App\Category;
use App\Unit;
use App\Subcategory;
use App\Stocks;
use App\CurrentStock;
use App\AccountDetails;
use App\HeadCategory;
Route::get('/add/data',function(){
    $filename         = storage_path().'/app/hashlob/inventory.csv';
    $delimiter        = ',';
    if (!file_exists($filename) || !is_readable($filename))
        return false;
    $header = null;
    $data = array();
    if (($handle = fopen($filename, 'r')) !== false)
    {
        while (($row = fgetcsv($handle, 1000, $delimiter)) !== false)
        {
            if (!$header)
                $header = $row;
            else
                {
                    $data[] = array_combine($header, $row);
                }

        }
        fclose($handle);
    }
    // return $data;
    for ($i = 0; $i < count($data); $i ++)
    {
        $brand =Brands::where('b_name','No Brand')->first();
        $cat =Category::where('cat_name','No Category')->first();
        $sub =Subcategory::where('s_cat_name','No Subcategory')->first();
        $unit =Unit::where('u_name','No Unit')->first();
        $product = Products::where('pro_name',$data[$i]['Item'])
        ->where('p_type','Finished')
        ->where('brand_id',$brand->id)
        ->where('cat_id',$cat->id)
        ->where('s_cat_id',$sub->id)
        ->where('unit_id',$unit->id)
        ->first();
        if($product == null)
        {
            $code = rand();

            $data2=([
                's_cat_id' => $sub->id,
                'pro_name' => $data[$i]['Item'],
                'pro_code' => $code,
                'unit_id' => $unit->id,
                'cost' =>  $data[$i]['Cost'],
                'alert_quantity' => 10,
                'brand_id' => $brand->id,
                'cat_id' => $cat->id,
                'visibility' => 1,
                'p_type' => 'Finished',
                'created_by' => 2,
                'status' => 1,
                'vstatus' => 0,
                'mstatus' => 'No',
            ]);
            $product=Products::create($data2);

            $hcat = HeadCategory::where('name','Inventory')->first();

            $account = AccountDetails::where('c_id',$hcat->id)
            ->latest('created_at')->orderBy('id','desc')->first();
            if($account == null)
            {
                $id = 001;
            }
            else
            {
                $id = substr($account->Code, strpos($account->Code, '-',strpos($account->Code, '-')+1)+1) +1 ;
            }

            $str_length = strlen((string)$id)+2;
            $id = substr("0000{$id}", -$str_length);
            $code = $hcat->code.'-'.$id;
            $data1 = [
                'Code' => $code,
                'name_of_account' => $code.' - '.$data[$i]['Item'],
                'c_id' => $hcat->id,
                'created_by' => 2,
                'type' => 0
            ];
            CurrentStock::create([
                'p_id' => $product->id,
                'w_id' => 1,
                'quantity' => $data[$i]['Qty'],
                'unit_quantity' => null,
                'type' => 0,
            ]);
            $period =Carbon::parse($data[0]['Date'])->format('M-y');
            $posted_date = Carbon::parse($period)->startOfMonth('Y-m-d')->format('Y-m-d');
            Stocks::create([
                'p_id' => $product->id,
                'w_id' => 1,
                'quantity' => $data[$i]['Qty'],
                'stock_date' => $posted_date,
                's_type' => 'Manual',
                'cost' =>  $data[$i]['Cost'],
                'type' =>  0,
            ]);
            $ac = AccountDetails::create($data1);
            $gl = GeneralLedger::max('id');
            if($gl == null)
            {
                $link_id = 1;
            }
            else
            {
                $ledger1 = GeneralLedger::where('id',$gl)->first();
                $link_id = $ledger1->link_id + 1;
            }
            GeneralLedger::create([
                'source' => 'Automated',
                'description' => $period.' Opening',
                'account_name' => $ac->name_of_account,
                'link_id' => $link_id,
                'created_by' => 2,
                'accounting_date' => $posted_date,
                'posted_date' => $posted_date,
                'period' => $period,
                'account_code' => $ac->Code,
                'currency_code' => 'PKR',
                'stock_in' => $data[$i]['Qty'],
                'stock_out' => '0',
                'net_value' => $data[$i]['Qty'],
                'balance' => $data[$i]['Qty'],
                'debit' => ($data[$i]['Cost'] * $data[$i]['Qty']),
                'credit' => 0,
                'amount' => ($data[$i]['Cost']),
                'type' => 0,
                'w_id' => 1
            ]);
        }

        else
        {
            $cs=CurrentStock::where('p_id',$product->id)
            ->where('w_id',1)
            ->where('type',0)
            ->first();
            if($cs == null)
            {
                CurrentStock::create([
                    'p_id' => $product->id,
                    'w_id' => 1,
                    'quantity' => $data[$i]['Qty'],
                    'unit_quantity' => null,
                    'type' => 0,
                ]);
            }
            else {
                $quan = $cs->quantity + $data[$i]['Qty'];
                $u_quan=null;
                CurrentStock::where('p_id',$product->id)
                ->where('w_id',1)
                ->where('type',0)
                ->update([
                    'quantity' => $quan,
                    'unit_quantity' => $u_quan
                ]);
            }
            $period =Carbon::parse($data[0]['Date'])->format('M-y');
            $posted_date = Carbon::parse($period)->startOfMonth('Y-m-d')->format('Y-m-d');
            Stocks::create([
                'p_id' => $product->id,
                'w_id' => 1,
                'quantity' => $data[$i]['Qty'],
                'stock_date' => $posted_date,
                's_type' => 'Manual',
                'cost' =>  $data[$i]['Cost'],
                'type' =>  0,
            ]);

            $account = AccountDetails::where('name_of_account',$product->pro_code.' - '.$data[$i]['Item'])
            ->first();
            $gl = GeneralLedger::max('id');
            if($gl == null)
            {
                $link_id = 1;
            }
            else
            {
                $ledger1 = GeneralLedger::where('id',$gl)->first();
                $link_id = $ledger1->link_id + 1;
            }
            GeneralLedger::create([
                'source' => 'Automated',
                'description' => $period.' Opening',
                'account_name' => $account->name_of_account,
                'link_id' => $link_id,
                'created_by' => 2,
                'accounting_date' => $posted_date,
                'posted_date' => $posted_date,
                'period' => $period,
                'account_code' => $account->Code,
                'currency_code' => 'PKR',
                'stock_in' => $data[$i]['Qty'],
                'stock_out' => '0',
                'net_value' => $data[$i]['Qty'],
                'balance' => $data[$i]['Qty'],
                'debit' => ($data[$i]['Cost'] * $data[$i]['Qty']),
                'credit' => 0,
                'amount' => ($data[$i]['Cost']),
                'type' => 0,
                'w_id' => 1
            ]);

        }
    }
    return 'done';
});


////////////// vouchers ////////////////
use App\JournalVoucher;
use App\AccountDetails;
use App\GeneralLedger;
use App\TransactionHistory;
use App\HeadCategory;
use Carbon\Carbon;
Route::get('/add/data',function(){


    $filename         = storage_path().'/app/hashlob/expense.csv';
    $delimiter        = ',';
    if (!file_exists($filename) || !is_readable($filename))
        return false;
    $header = null;
    $data = array();
    if (($handle = fopen($filename, 'r')) !== false)
    {
        while (($row = fgetcsv($handle, 1000, $delimiter)) !== false)
        {
            if (!$header)
                $header = $row;
            else
                {
                    $data[] = array_combine($header, $row);
                }

        }
        fclose($handle);
    }
    // return $data;

    for ($i=0; $i <count($data) ; $i++) {
        $date =Carbon::parse($data[$i]['Date'])->format('Y-m-d');
        $scid = AccountDetails::where('name_of_account',$data[$i]['child'])->first();
        if($scid == null)
        {
            return $data[$i]['child'].$i;
        }
        $cid = HeadCategory::where('id',$scid->c_id)->first();
        // return $cid;
        $status = 'Approved';
        $created_by=2;
        $period =Carbon::parse($data[$i]['Date'])->format('M-y');

        JournalVoucher::create([
            'date' => $date,
            'status' => $status,
            'account1' => $scid->Code,
            'account2' => 'CA-03-001',
            'amount' => (int)$data[$i]['Dr'],
            'description' => $data[$i]['Particular'],
            'month' => $period,
            'head1' => $cid->code,
            'head2' => 'CA-03',
            'created_by' => $created_by,
        ]);



        $id = GeneralLedger::max('id');
        $ledger = GeneralLedger::where('id',$id)->first();
        if($ledger == null)
        {
            $link_id=1;
        }
        else
        {
            $link_id = $ledger->link_id + 1;
        }
        $posted_date = Carbon::parse($data[$i]['Date'])->format('Y-m-d');
        $period =Carbon::parse($data[$i]['Date'])->format('M-y');
        $cash_c = 0;
        $cash_d = 0;
        $cash_n = 0;
        TransactionHistory::create([
            'p_s_id' => 0,
            'p_type' => 'Expense',
            't_type' => 'Sent',
            'paid_by' =>'Cash',
            'total' => (int)$data[$i]['Dr'],
            'created_by' => $created_by
        ]);
        $ref_no = TransactionHistory::max('id');
        $account_c = AccountDetails::where('name_of_account','Cash In Hand')->first();
        $cash = GeneralLedger::where('account_code',$account_c->Code)
        ->get();
        if($cash->isEmpty())
        {
            GeneralLedger::create([
                'source' => 'Automated',
                'description' =>$data[$i]['Particular'],
                'account_name' => $account_c->name_of_account,
                'link_id' => $link_id,
                'created_by' => $created_by,
                'accounting_date' => $posted_date,
                'posted_date' => $posted_date,
                'period' => $period,
                'account_code' => $account_c->Code,
                'transaction_no' => $ref_no,
                'currency_code' =>'PKR',
                'debit' => '0',
                'credit' => (int)$data[$i]['Dr'],
                'net_value' => 0 - (int)$data[$i]['Dr'],
                'balance' => 0 - (int)$data[$i]['Dr']
            ]);
        }
        else
        {
            $balance = 0;
            foreach ($cash as $key => $c) {
                $cash_c+=$c->credit;
                $cash_d+=$c->debit;
                $balance+=$c->net_value;
            }
            $cash_c += (int)$data[$i]['Dr'];
            $cash_n = $balance + (0 - (int)$data[$i]['Dr']);

            GeneralLedger::create([
                'source' => 'Automated',
                'description' =>$data[$i]['Particular'],
                'account_name' => $account_c->name_of_account,
                'link_id' => $link_id,
                'created_by' => $created_by,
                'accounting_date' => $posted_date,
                'posted_date' => $posted_date,
                'period' => $period,
                'account_code' => $account_c->Code,
                'transaction_no' => $ref_no,
                'currency_code' =>'PKR',
                'debit' => '0',
                'credit' => (int)$data[$i]['Dr'],
                'net_value' => 0 - (int)$data[$i]['Dr'],
                'balance' =>$cash_n
            ]);
        }


        $exp_d = 0;
        $exp_c = 0;
        $exp_n = 0;
        $account_s = AccountDetails::where('name_of_account',$data[$i]['child'])
        ->first();
        $expense = GeneralLedger::where('account_code',$account_s->Code)
        ->get();

        if($expense->isEmpty())
        {
            GeneralLedger::create([
                'source' => 'Automated',
                'description' => $data[$i]['Particular'],
                'account_name' => $account_s->name_of_account,
                'link_id' => $link_id,
                'created_by' => $created_by,
                'accounting_date' => $posted_date,
                'posted_date' => $posted_date,
                'period' => $period,
                'account_code' => $account_s->Code,
                'transaction_no' => $ref_no,
                'currency_code' =>'PKR',
                'credit' => '0',
                'debit' => (int)$data[$i]['Dr'],
                'net_value' => (int)$data[$i]['Dr'],
                'balance' => (int)$data[$i]['Dr']
            ]);
        }
        else
        {
            $balance = 0;
                foreach ($expense as $key => $c) {
                    $exp_c+=$c->credit;
                    $exp_d+=$c->debit;
                    $balance+=$c->net_value;
                }
                $exp_c += (int)$data[$i]['Dr'];
                $exp_n = $balance + ((int)$data[$i]['Dr'] - 0);

                GeneralLedger::create([
                    'source' => 'Automated',
                    'description' => $data[$i]['Particular'],
                    'account_name' => $account_s->name_of_account,
                    'link_id' => $link_id,
                    'created_by' => $created_by,
                    'accounting_date' => $posted_date,
                    'posted_date' => $posted_date,
                    'period' => $period,
                    'account_code' => $account_s->Code,
                    'transaction_no' => $ref_no,
                    'currency_code' =>'PKR',
                    'credit' => '0',
                    'debit' => (int)$data[$i]['Dr'],
                    'net_value' => (int)$data[$i]['Dr'],
                    'balance' =>$exp_n
                ]);
        }
    }
    return 'done';
});


////////////// receivables //////////////////////

use App\AccountDetails;
use App\GeneralLedger;
use App\HeadCategory;
use App\Vendors;
Route::get('/add/data',function(){


    $filename         = storage_path().'/app/hashlob/receivables.csv';
    $delimiter        = ',';
    if (!file_exists($filename) || !is_readable($filename))
        return false;
    $header = null;
    $data = array();
    if (($handle = fopen($filename, 'r')) !== false)
    {
        while (($row = fgetcsv($handle, 1000, $delimiter)) !== false)
        {
            if (!$header)
                $header = $row;
            else
                {
                    $data[] = array_combine($header, $row);
                }

        }
        fclose($handle);
    }
    //return $data;
    // return 'done';
    $cus1 = [];
    $cus2 = [];
    for ($i=0; $i <count($data) ; $i++) {
        $vendor = Vendors::where('name',$data[$i]['Name'])->where('v_type','Customer')->first();
        // return $vendor;
        if($vendor == null)
        {
            $hcat = HeadCategory::where('name','Receivables')->first();

            $account = AccountDetails::where('c_id',$hcat->id)
            ->latest('created_at')->orderBy('id','desc')->first();

            if($account == null)
            {
                $id = 001;
            }
            else
            {
                $id = substr($account->Code, strpos($account->Code, '-',strpos($account->Code, '-')+1)+1) +1 ;
            }

            $str_length = strlen((string)$id)+2;
            $id = substr("0000{$id}", -$str_length);
            $code = $hcat->code.'-'.$id;

            $data2 = [
                'Code' => $code,
                'name_of_account' => $data[$i]['Company'].' - '.$data[$i]['Name'],
                'c_id' => $hcat->id,
                'created_by' => 2
            ];
            $account_c = AccountDetails::create($data2);

            $v = Vendors::create([
                'company' => $data[$i]['Company'],
                'name' => $data[$i]['Name'],
                'v_type' => 'Customer',
                'created_by' => 2,
                'status' => 1
            ]);

            $id = GeneralLedger::max('id');
            $ledger = GeneralLedger::where('id',$id)->first();
            if($ledger == null)
            {
                $link_id=1;
            }
            else
            {
                $link_id = $ledger->link_id + 1;
            }
            $posted_date = '2021-07-25';
            $period = 'Jul-21';
            $customer_d = 0;
            $customer_c = 0;
            $customer_n = 0;
            GeneralLedger::create([
                'source' => 'Automated',
                'description' => 'Opening account',
                'account_name' => $account_c->name_of_account,
                'link_id' => $link_id,
                'created_by' => 2,
                'accounting_date' =>  $posted_date,
                'posted_date' =>  $posted_date,
                'period' => $period,
                'account_code' => $account_c->Code,
                'currency_code' => 'PKR',
                'debit' => $data[$i]['Amount'],
                'credit' => '0',
                'net_value' => $data[$i]['Amount'],
                'balance' => $data[$i]['Amount']
            ]);
        }
        else {
            $account_c = AccountDetails::where('name_of_account',$vendor->company.' - '.$vendor->name)->first() ;

            $id = GeneralLedger::max('id');
            $ledger = GeneralLedger::where('id',$id)->first();
            if($ledger == null)
            {
                $link_id=1;
            }
            else
            {
                $link_id = $ledger->link_id + 1;
            }
            $posted_date = '2021-07-25';
            $period = 'Jul-21';
            $customer_d = 0;
            $customer_c = 0;
            $customer_n = 0;
            $customer_l = GeneralLedger::where('account_code',$account_c->Code)
            ->where('description','Opening Account')
            ->first();
            // dd($customer_l);
            if($customer_l == null)
            {
                GeneralLedger::create([
                    'source' => 'Automated',
                    'description' => 'Opening Account',
                    'account_name' => $account_c->name_of_account,
                    'link_id' => $link_id,
                    'created_by' => 2,
                    'accounting_date' =>  $posted_date,
                    'posted_date' =>  $posted_date,
                    'period' => $period,
                    'account_code' => $account_c->Code,
                    'currency_code' => 'PKR',
                    'debit' => $data[$i]['Amount'],
                    'credit' => '0',
                    'net_value' => $data[$i]['Amount'],
                    'balance' => $data[$i]['Amount']
                ]);
            }
            else
            {
                $balance = 0;
                $balance = $customer_l->debit +  $data[$i]['Amount'];
                // // dd($balance,$vendor->name);
                GeneralLedger::where('id',$customer_l->id)
                ->update([
                    'debit' => $balance,
                    'credit' => '0',
                    'net_value' => $balance,
                    'balance' => $balance
                ]);
            }

        }
    }
    // return $cus1;
    return 'done';
});


/////////// sales ///////////////////////
use App\AccountDetails;
use App\Vendors;
use App\HeadCategory;
use App\Sales;
use App\SaleDetails;
use Carbon\Carbon;
use App\GeneralLedger;
use App\TransactionHistory;
use App\Products;
use App\Brands;
use App\Category;
use App\Unit;
use App\Subcategory;
use App\StockOut;

// // //import data query//////////////
Route::get('/add/data',function(){
    $filename         = storage_path().'/app/hashlob/sales.csv';
    $delimiter        = ',';
    if (!file_exists($filename) || !is_readable($filename))
        return false;
    $header = null;
    $data = array();
    if (($handle = fopen($filename, 'r')) !== false)
    {
        while (($row = fgetcsv($handle, 1000, $delimiter)) !== false)
        {
            if (!$header)
                $header = $row;
            else
                {
                    $data[] = array_combine($header, $row);
                }

        }
        fclose($handle);
    }
    // return $data;
    $total = 0 ;
    for ($i = 0; $i < count($data); $i ++)
    {
        $posted_date = Carbon::parse($data[$i]['Date'])->format('Y-m-d');
        $period = Carbon::parse($data[$i]['Date'])->format('M-y');
        $v =Vendors::where('company',$data[$i]['Company'])->where('name',$data[$i]['Name'])->where('v_type','Customer')->first();
        if($v == null)
        {
            $hcat = HeadCategory::where('name','Receivables')->first();

            $account = AccountDetails::where('c_id',$hcat->id)
            ->latest('created_at')->orderBy('id','desc')->first();

            if($account == null)
            {
                $id = 001;
            }
            else
            {
                $id = substr($account->Code, strpos($account->Code, '-',strpos($account->Code, '-')+1)+1) +1 ;
            }

            $str_length = strlen((string)$id)+2;
            $id = substr("0000{$id}", -$str_length);
            $code = $hcat->code.'-'.$id;

            $data2 = [
                'Code' => $code,
                'name_of_account' => $data[$i]['Company'].' - '.$data[$i]['Name'],
                'c_id' => $hcat->id,
                'created_by' => 2
            ];
            AccountDetails::create($data2);

            $v = Vendors::create([
                'company' => $data[$i]['Company'],
                'name' => $data[$i]['Name'],
                'v_type' => 'Customer',
                'created_by' => 2,
                'status' => 1
            ]);
        }


        // return $product;
        // else
        // {


            $sales = Sales::where('sale_date',$posted_date)->where('c_id',$v->id)->first();
            // dd($sales);
            $saleid = Sales::max('id');
            $gdn_no = rand();

            if($sales == null)
            {

                $gl = GeneralLedger::max('id');
                if($gl == null)
                {
                    $link_id = 1;
                }
                else
                {
                    $ledger = GeneralLedger::where('id',$gl)->first();
                    $link_id = $ledger->link_id + 1;
                }
                if($saleid != null)
                {
                    // $total = $data[$i]['Amount'];
                    Sales::where('id',$saleid)->update(['total' => $total]);
                    $account_s = AccountDetails::where('name_of_account','Sales')->first();
                    $sales = GeneralLedger::where('account_code',$account_s->Code)
                    ->get();
                    $account_c = AccountDetails::where('name_of_account',$v->company.' - '.$v->name)
                    ->first();
                    // dd($account_c);
                    $customer_l = GeneralLedger::where('account_code',$account_c->Code)
                    ->get();
                    $sales_n = 0;
                    $sales_d = 0;
                    $sales_c = 0;

                    if($sales->isEmpty())
                    {
                        GeneralLedger::create([
                            'source' => 'Automated',
                            'description' => 'Sales to '.$v->name,
                            'account_name' => $account_s->name_of_account,
                            'link_id' => $link_id,
                            'created_by' => 2,
                            'accounting_date' => $posted_date,
                            'posted_date' => $posted_date,
                            'period' => $period,
                            'account_code' => $account_s->Code,
                            'transaction_no' => $gdn_no,
                            'currency_code' => 'PKR',
                            'debit' => '0',
                            'credit' => $total,
                            'net_value' =>  0 - $total,
                            'balance' =>  0 - $total
                        ]);
                    }
                    else
                    {
                        $balance = 0;
                        foreach ($sales as $key => $d) {
                            $sales_d+=$d->debit;
                            $sales_c+=$d->credit;
                            $balance+=$d->net_value;
                        }
                        $sales_c += $total;
                        // $sales_n = $sales_d - $sales_c;
                        $sales_n = $balance + (0 - $total);

                        GeneralLedger::create([
                            'source' => 'Automated',
                            'description' => 'Sales to '.$v->name,
                            'account_name' => $account_s->name_of_account,
                            'link_id' => $link_id,
                            'created_by' => 2,
                            'accounting_date' => $posted_date,
                            'posted_date' => $posted_date,
                            'period' => $period,
                            'account_code' => $account_s->Code,
                            'transaction_no' => $gdn_no,
                            'currency_code' => 'PKR',
                            'debit' => '0',
                            'credit' => $total,
                            'net_value' => 0 - $total,
                            'balance' => $sales_n
                        ]);
                    }

                    $customer_d = 0;
                    $customer_c = 0;
                    $customer_n = 0;
                    if($customer_l->isEmpty())
                    {
                        GeneralLedger::create([
                            'source' => 'Automated',
                            'description' => 'Sales to'.$v->name,
                            'account_name' => $account_c->name_of_account,
                            'link_id' => $link_id,
                            'created_by' => 2,
                            'accounting_date' => $posted_date,
                            'posted_date' => $posted_date,
                            'period' => $period,
                            'account_code' => $account_c->Code,
                            'transaction_no' => $gdn_no,
                            'currency_code' => 'PKR',
                            'debit' => $total,
                            'credit' => '0',
                            'net_value' => $total,
                            'balance' => $total
                        ]);
                    }
                    else
                    {
                        $balance = 0;
                        foreach ($customer_l as $key => $c) {
                            $customer_c+=$c->credit;
                            $customer_d+=$c->debit;
                            $balance+=$c->net_value;
                        }
                        $customer_d += $total;
                        // $customer_n = $customer_d - $customer_c;
                        $customer_n = $balance + ($total - 0);

                        GeneralLedger::create([
                            'source' => 'Automated',
                            'description' => 'Sales to '.$v->name,
                            'account_name' => $account_c->name_of_account,
                            'link_id' => $link_id,
                            'created_by' => 2,
                            'accounting_date' => $posted_date,
                            'posted_date' => $posted_date,
                            'period' => $period,
                            'account_code' => $account_c->Code,
                            'transaction_no' => $gdn_no,
                            'currency_code' => 'PKR',
                            'debit' => $total,
                            'credit' => '0',
                            'net_value' => $total,
                            'balance' => $customer_n
                        ]);
                    }
                    $total =0;
                }
                $date = Carbon::parse($data[$i]['Date'])->format('Y-m-d');
                $datasale=([
                    'sale_date' => $date,
                    'b_id' => $data[$i]['bid'],
                    'c_id' => $v->id,
                    'w_id' => 1,
                    's_address' => 'Karachi',
                    's_status' => 'Approved',
                    'p_status' => 'Pending',
                    'created_by' => 2,
                    'sp_id' => $data[$i]['sid'],
                    'advance' => 'No',
                    'pay_type' => 'Bill To Bill',
                    'return_status' => 'No Return',
                ]);
                $total+=$data[$i]['Amount'];
                $sales=Sales::create($datasale);
                // if($data[$i]['brand'] != "")
                // {
                    $brand =Brands::where('b_name','No Brand')->first();
                    $cat =Category::where('cat_name','No Category')->first();
                    $sub =Subcategory::where('s_cat_name','No Subcategory')->first();
                    $unit =Unit::where('u_name','No Unit')->first();
                    $product = Products::where('pro_name',$data[$i]['Project'])
                    ->where('p_type','Finished')
                    ->where('brand_id',$brand->id)
                    ->where('cat_id',$cat->id)
                    ->where('s_cat_id',$sub->id)
                    ->where('unit_id',$unit->id)
                    ->first();

                    if($product == null)
                    {
                        $pro_code = rand();

                        $data3=([
                            's_cat_id' => $sub->id,
                            'pro_name' => $data[$i]['Project'],
                            'pro_code' => $pro_code,
                            'unit_id' => $unit->id,
                            'alert_quantity' => 10,
                            'brand_id' => $brand->id,
                            'cat_id' => $cat->id,
                            'visibility' => 1,
                            'p_type' => 'Finished',
                            'created_by' => 2,
                            'status' => 1,
                            'vstatus' => 0,
                            'mstatus' => 'No',
                        ]);
                        $product=Products::create($data3);

                        $hcat = HeadCategory::where('name','Inventory')->first();

                        $account = AccountDetails::where('c_id',$hcat->id)
                        ->latest('created_at')->orderBy('id','desc')->first();
                        if($account == null)
                        {
                            $id = 001;
                        }
                        else
                        {
                            $id = substr($account->Code, strpos($account->Code, '-',strpos($account->Code, '-')+1)+1) +1 ;
                        }

                        $str_length = strlen((string)$id)+2;
                        $id = substr("0000{$id}", -$str_length);
                        $code = $hcat->code.'-'.$id;
                        $data4 = [
                            'Code' => $code,
                            'name_of_account' => $pro_code.' - '.$data[$i]['Project'],
                            'c_id' => $hcat->id,
                            'created_by' => 2,
                            'type' => 0
                        ];
                        $ac = AccountDetails::create($data4);
                    }
                    $account_i = AccountDetails::where('name_of_account',$product->pro_code.' - '.$product->pro_name)
                    ->first();
                    // return $account_i;
                    $balance = 0;
                    $net_d_p = 0;
                    $debit_p = GeneralLedger::where('account_code',$account_i->Code)
                    ->where('w_id',1)
                    ->get();
                    if($debit_p->isEmpty())
                    {
                        GeneralLedger::create([
                            'source' => 'Automated',
                            'description' => 'Sale product for sale number: '.$sales->id,
                            'account_name' => $account_i->name_of_account,
                            'link_id' => $link_id,
                            'created_by' => 2,
                            'accounting_date' => $posted_date,
                            'posted_date' => $posted_date,
                            'period' => $period,
                            'account_code' => $account_i->Code,
                            'transaction_no' => $gdn_no,
                            'currency_code' => 'PKR',
                            'stock_out' => 1,
                            'stock_in' => '0',
                            'net_value' => 0 - 1,
                            'balance' => 0 - 1,
                            'credit' =>  1 * 1,
                            'debit' => 0,
                            'w_id' =>1,
                            'type' => $product->vstatus,
                            'amount' => 0 - 1
                        ]);
                    }
                    else
                    {
                        foreach ($debit_p as $key => $c) {
                            $balance+=$c->net_value;
                        }
                        $net_d_p = $balance + ( 0 - 1 );
                        GeneralLedger::create([
                            'source' => 'Automated',
                            'description' => 'Sale product for sale number: '.$sales->id,
                            'account_name' => $account_i->name_of_account,
                            'link_id' => $link_id,
                            'created_by' => 2,
                            'accounting_date' => $posted_date,
                            'posted_date' => $posted_date,
                            'period' => $period,
                            'account_code' => $account_i->Code,
                            'transaction_no' => $gdn_no,
                            'currency_code' => 'PKR',
                            'stock_out' => 1,
                            'stock_in' => '0',
                            'net_value' => 0 - 1,
                            'balance' => $net_d_p,
                            'credit' => 1 * 1,
                            'debit' => 0,
                            'w_id' =>1 ,
                            'type' => $product->vstatus,
                            'amount' => 0 - 1
                        ]);
                    }
                    $sd = SaleDetails::create([
                        's_id' => $sales->id,
                        'p_id' => $product->id,
                        'quantity' => 1,
                        'sub_total' => $data[$i]['Amount'],
                        'price' => $data[$i]['Amount'],
                        'delivered_quantity' => 1,
                        'type' => $product->vstatus,
                    ]);
                    StockOut::create([
                        'p_id' => $product->id,
                        'quantity' => 1,
                        'stock_date' => $date,
                        'sale_d_id' => $sd->id,
                        'price' => $data[$i]['Amount'],
                        'created_by' => 2,
                        'w_id' => 1,
                        'gdn_no' => $gdn_no,
                        's_type' => 'Sales',
                        'type' => $product->vstatus
                    ]);
                    // $prod=CurrentStock::where('p_id',$product->id)
                    // ->where('w_id',1)
                    // ->where('type',$product->vstatus)
                    // ->first();

                    // if($prod == null)
                    // {
                    //     return $data[$i]['Product'];
                    // }
                    // if($product->unit->u_name == 'Liter' || $product->unit->u_name == 'Kilograms')
                    // {
                    //     $unit_quantity = $data[$i]['Qty'];
                    // }
                    // else if($product->unit->u_name == 'Mililiter' || $product->unit->u_name == 'Grams')
                    // {
                    //     $unit_quantity =  $data[$i]['Qty'];

                    // }
                    // else
                    // {
                    //     $unit_quantity = null;
                    // }

                    // if($prod->unit_quantity == null)//changes
                    // {
                    //     $u_quan=null;
                    // }
                    // else
                    // {
                    //     $u_quan = $prod->unit_quantity - $unit_quantity;
                    // }
                    // if($prod->quantity == null)
                    // {
                    //     $quan = null;
                    // }
                    // else {
                    //     $quan=$prod->quantity - $data[$i]['Qty'];

                    // }

                    // //for current stock

                    // CurrentStock::where('p_id',$product->id)
                    // ->where('w_id',1)
                    // ->where('type',$product->vstatus)
                    // ->update([
                    //     'quantity' => $quan,
                    //     'unit_quantity' => $u_quan
                    // ]);
                // }

            }
            else {
                $date = Carbon::parse($data[$i]['Date'])->format('Y-m-d');
                $sout = StockOut::max('id');
                $gdn = StockOut::where('id',$sout)->first();
                $gl = GeneralLedger::max('id');
                $total+=$data[$i]['Amount'];
                if($gl == null)
                {
                    $link_id = 1;
                }
                else
                {
                    $ledger = GeneralLedger::where('id',$gl)->first();
                    $link_id = $ledger->link_id ;
                }
                // return $gdn;
                // if($data[$i]['brand'] != "")
                // {
                    $brand =Brands::where('b_name','No Brand')->first();
                    $cat =Category::where('cat_name','No Category')->first();
                    $sub =Subcategory::where('s_cat_name','No Subcategory')->first();
                    $unit =Unit::where('u_name','No Unit')->first();
                    $product = Products::where('pro_name',$data[$i]['Project'])
                    ->where('p_type','Finished')
                    ->where('brand_id',$brand->id)
                    ->where('cat_id',$cat->id)
                    ->where('s_cat_id',$sub->id)
                    ->where('unit_id',$unit->id)
                    ->first();

                    if($product == null)
                    {
                        $pro_code = rand();

                        $data3=([
                            's_cat_id' => $sub->id,
                            'pro_name' => $data[$i]['Project'],
                            'pro_code' => $pro_code,
                            'unit_id' => $unit->id,
                            'alert_quantity' => 10,
                            'brand_id' => $brand->id,
                            'cat_id' => $cat->id,
                            'visibility' => 1,
                            'p_type' => 'Finished',
                            'created_by' => 2,
                            'status' => 1,
                            'vstatus' => 0,
                            'mstatus' => 'No',
                        ]);
                        $product=Products::create($data3);

                        $hcat = HeadCategory::where('name','Inventory')->first();

                        $account = AccountDetails::where('c_id',$hcat->id)
                        ->latest('created_at')->orderBy('id','desc')->first();
                        if($account == null)
                        {
                            $id = 001;
                        }
                        else
                        {
                            $id = substr($account->Code, strpos($account->Code, '-',strpos($account->Code, '-')+1)+1) +1 ;
                        }

                        $str_length = strlen((string)$id)+2;
                        $id = substr("0000{$id}", -$str_length);
                        $code = $hcat->code.'-'.$id;
                        $data4 = [
                            'Code' => $code,
                            'name_of_account' => $pro_code.' - '.$data[$i]['Project'],
                            'c_id' => $hcat->id,
                            'created_by' => 2,
                            'type' => 0
                        ];
                        $ac = AccountDetails::create($data4);
                    }

                    $account_i = AccountDetails::where('name_of_account',$product->pro_code.' - '.$product->pro_name)
                    ->first();
                    $balance = 0;
                    $net_d_p = 0;
                    $debit_p = GeneralLedger::where('account_code',$account_i->Code)
                    ->where('w_id',1)
                    ->get();
                    if($debit_p->isEmpty())
                    {
                        GeneralLedger::create([
                            'source' => 'Automated',
                            'description' => 'Sale product for sale number: '.$sales->id,
                            'account_name' => $account_i->name_of_account,
                            'link_id' => $link_id,
                            'created_by' => 2,
                            'accounting_date' => $posted_date,
                            'posted_date' => $posted_date,
                            'period' => $period,
                            'account_code' => $account_i->Code,
                            'transaction_no' => $gdn->gdn_no,
                            'currency_code' => 'PKR',
                            'stock_out' => 1,
                            'stock_in' => '0',
                            'net_value' => 0 - 1,
                            'balance' => 0 - 1,
                            'credit' =>  1 * 1,
                            'debit' => 0,
                            'w_id' =>1,
                            'type' => $product->vstatus,
                            'amount' => 0 - 1
                        ]);
                    }
                    else
                    {
                        foreach ($debit_p as $key => $c) {
                            $balance+=$c->net_value;
                        }
                        $net_d_p = $balance + ( 0 - 1 );
                        GeneralLedger::create([
                            'source' => 'Automated',
                            'description' => 'Sale product for sale number: '.$sales->id,
                            'account_name' => $account_i->name_of_account,
                            'link_id' => $link_id,
                            'created_by' => 2,
                            'accounting_date' => $posted_date,
                            'posted_date' => $posted_date,
                            'period' => $period,
                            'account_code' => $account_i->Code,
                            'transaction_no' => $gdn->gdn_no,
                            'currency_code' => 'PKR',
                            'stock_out' => 1,
                            'stock_in' => '0',
                            'net_value' => 0 - 1,
                            'balance' => $net_d_p,
                            'credit' => 1 * 1,
                            'debit' => 0,
                            'w_id' =>1 ,
                            'type' => $product->vstatus,
                            'amount' => 0 - 1
                        ]);
                    }
                    $sd = SaleDetails::create([
                        's_id' => $sales->id,
                        'p_id' => $product->id,
                        'quantity' =>1,
                        'sub_total' => $data[$i]['Amount'],
                        'price' => $data[$i]['Amount'],
                        'delivered_quantity' => 1,
                        'type' => $product->vstatus,
                    ]);
                    StockOut::create([
                        'p_id' => $product->id,
                        'quantity' => 1,
                        'stock_date' => $date,
                        'sale_d_id' => $sd->id,
                        'price' => $data[$i]['Amount'],
                        'created_by' => 2,
                        'w_id' => 1,
                        'gdn_no' => $gdn->gdn_no,
                        's_type' => 'Sales',
                        'type' => $product->vstatus
                    ]);
                    // $prod=CurrentStock::where('p_id',$product->id)
                    // ->where('w_id',1)
                    // ->where('type',$product->vstatus)
                    // ->first();
                    // if($prod == null)
                    // {
                    //     return $data[$i]['Product'];
                    // }
                    // if($product->unit->u_name == 'Liter' || $product->unit->u_name == 'Kilograms')
                    // {
                    //     $unit_quantity = $data[$i]['Qty'];
                    // }
                    // else if($product->unit->u_name == 'Mililiter' || $product->unit->u_name == 'Grams')
                    // {
                    //     $unit_quantity =  $data[$i]['Qty'];

                    // }
                    // else
                    // {
                    //     $unit_quantity = null;
                    // }

                    // if($prod->unit_quantity == null)//changes
                    // {
                    //     $u_quan=null;
                    // }
                    // else
                    // {
                    //     $u_quan = $prod->unit_quantity - $unit_quantity;
                    // }
                    // if($prod->quantity == null)
                    // {
                    //     $quan = null;
                    // }
                    // else {
                    //     $quan=$prod->quantity - $data[$i]['Qty'];

                    // }

                    // //for current stock

                    // CurrentStock::where('p_id',$product->id)
                    // ->where('w_id',1)
                    // ->where('type',$product->vstatus)
                    // ->update([
                    //     'quantity' => $quan,
                    //     'unit_quantity' => $u_quan
                    // ]);
                // }

            }
        // }

    }


    return 'done';
});
